{
    "name": "Tenarion.EasyUtils.Editor.EasyBT",
    "rootNamespace": "",
    "references": [
        "GUID:4fb40c792e6956e46a70243aef533023",
        "GUID:607f7dc6637cb4d4e961980379b78bc4",
        "GUID:2f101f87087d58f4ba92ca00188e763d"
    ],
    "includePlatforms": [],
    "excludePlatforms": [],
    "allowUnsafeCode": false,
    "overrideReferences": false,
    "precompiledReferences": [],
    "autoReferenced": true,
    "defineConstraints": [
        "EASY_BEHAVIOUR_TREE_AVAILABLE"
    ],
    "versionDefines": [],
    "noEngineReferences": false
}