{
    "name": "Tenarion.EasyUtils.DesignPatterns.EasyEventBus",
    "rootNamespace": "",
    "references": [
        "GUID:607f7dc6637cb4d4e961980379b78bc4"
    ],
    "includePlatforms": [],
    "excludePlatforms": [],
    "allowUnsafeCode": false,
    "overrideReferences": false,
    "precompiledReferences": [],
    "autoReferenced": true,
    "defineConstraints": [
        "EASY_EVENT_BUS_AVAILABLE"
    ],
    "versionDefines": [],
    "noEngineReferences": false
}